{% if vm.ifconfig|d() %}
version: 2
ethernets:
{% for if in  vm.ifconfig if if.ifname|d('') %}
  {{ if.ifname }}:
    match:
      name: e*
{% if if.dhcp4|d() %}
    dhcp4: {{ if.dhcp4|ternary('true', 'false') }}
{% endif %}
{% if if.dhcp6|d() %}
    dhcp6: {{ if.dhcp6|ternary('true', 'false') }}
{% endif %}
{% if if.addresses|d([]) %}
    addresses:
{% for addr in if.addresses|d([]) %}
      - {{ addr }}
{% endfor %}
{% endif %}
{% if if.gateway4|d() %}
    gateway4: {{ if.gateway4 }}
{% endif %}
{% if if.gateway6|d() %}
    gateway6: {{ if.gateway6 }}
{% endif %}
{% if if.nameservers|d() %}
    nameservers:
{% for addr in if.nameservers.addresses|d([]) %}
{% if loop.first %}
      addresses:
{% endif %}
        - {{ addr }}
{% endfor %}
{% for domain in if.nameservers.search|d([]) %}
{% if loop.first %}
      search:
{% endif %}
        - {{ domain }}
{% endfor %}
{% endif %}
{% endfor %}
{% endif %}
